R Coding Exercise – Yufei Wu’s Data Analysis Portfolio
…
Data exploration

I noticed in the summary above that genre appears to have many categories that overlap (e.g., a genre is listed as Comedy|Drama|Romance).

genre_options <- movielens %>%
  group_by(genres) %>%
  summarize(n = n()) %>%
  arrange(desc(n))
genre_options

# A tibble: 901 × 2
   genres                               n
   <fct>                            <int>
 1 Drama                             7757
 2 Comedy                            6748
 3 Comedy|Romance                    3973
 4 Drama|Romance                     3462
 5 Comedy|Drama                      3272
 6 Comedy|Drama|Romance              3204
 7 Crime|Drama                       2367
 8 Action|Adventure|Sci-Fi           2146
 9 Action|Adventure|Sci-Fi|Thriller  1453
10 Action|Crime|Thriller             1441
# ℹ 891 more rows
…
